OBJECTID,MEDIA,description,name,CREATED,LATITUDE,LONGITUDE,pic_url,thumb_url
1,BOWDOIN1.JPG,BOWDOIN PARK,PAVILION 4,6/9/2016 10:47,41.60495206,-73.93843261,http://gistest2.dcny.gov/vr/bowdoin/images/BOWDOIN1.JPG,http://gistest2.dcny.gov/vr/bowdoin/icons/BOWDOIN1.png
2,BOWDOIN2.JPG,BOWDOIN PARK,PAVILION 4,6/9/2016 10:50,41.60547921,-73.93839392,http://gistest2.dcny.gov/vr/bowdoin/images/BOWDOIN2.JPG,http://gistest2.dcny.gov/vr/bowdoin/icons/BOWDOIN2.png
3,BOWDOIN3.JPG,BOWDOIN PARK,PAVILION 4,6/9/2016 10:51,41.60526326,-73.93854695,http://gistest2.dcny.gov/vr/bowdoin/images/BOWDOIN3.JPG,http://gistest2.dcny.gov/vr/bowdoin/icons/BOWDOIN3.png
4,BOWDOIN4.JPG,BOWDOIN PARK,PAVILION 4,6/9/2016 10:53,41.60527671,-73.93879246,http://gistest2.dcny.gov/vr/bowdoin/images/BOWDOIN4.JPG,http://gistest2.dcny.gov/vr/bowdoin/icons/BOWDOIN4.png
5,BOWDOIN5.JPG,BOWDOIN PARK,ATHLETIC FIELD,6/9/2016 10:56,41.60573756,-73.93912847,http://gistest2.dcny.gov/vr/bowdoin/images/BOWDOIN5.JPG,http://gistest2.dcny.gov/vr/bowdoin/icons/BOWDOIN5.png
6,BOWDOIN6.JPG,BOWDOIN PARK,LODGE,6/9/2016 11:15,41.60724219,-73.93900424,http://gistest2.dcny.gov/vr/bowdoin/images/BOWDOIN6.JPG,http://gistest2.dcny.gov/vr/bowdoin/icons/BOWDOIN6.png
7,BOWDOIN7.JPG,BOWDOIN PARK,LODGE,6/9/2016 11:18,41.60746208,-73.93933068,http://gistest2.dcny.gov/vr/bowdoin/images/BOWDOIN7.JPG,http://gistest2.dcny.gov/vr/bowdoin/icons/BOWDOIN7.png
8,BOWDOIN8.JPG,BOWDOIN PARK,LODGE,6/9/2016 11:20,41.60738819,-73.93977479,http://gistest2.dcny.gov/vr/bowdoin/images/BOWDOIN8.JPG,http://gistest2.dcny.gov/vr/bowdoin/icons/BOWDOIN8.png
9,BOWDOIN9.JPG,BOWDOIN PARK,LODGE,6/9/2016 11:21,41.60729011,-73.93966487,http://gistest2.dcny.gov/vr/bowdoin/images/BOWDOIN9.JPG,http://gistest2.dcny.gov/vr/bowdoin/icons/BOWDOIN9.png
10,BOWDOIN10.JPG,BOWDOIN PARK,LODGE,6/9/2016 11:23,41.60713978,-73.93992964,http://gistest2.dcny.gov/vr/bowdoin/images/BOWDOIN10.JPG,http://gistest2.dcny.gov/vr/bowdoin/icons/BOWDOIN10.png
11,BOWDOIN11.JPG,BOWDOIN PARK,CHAPEL,6/9/2016 11:43,41.60277515,-73.93721006,http://gistest2.dcny.gov/vr/bowdoin/images/BOWDOIN11.JPG,http://gistest2.dcny.gov/vr/bowdoin/icons/BOWDOIN11.png
12,BOWDOIN12.JPG,BOWDOIN PARK,CHAPEL,6/9/2016 11:45,41.60240983,-73.93697696,http://gistest2.dcny.gov/vr/bowdoin/images/BOWDOIN12.JPG,http://gistest2.dcny.gov/vr/bowdoin/icons/BOWDOIN12.png
13,BOWDOIN13.JPG,BOWDOIN PARK,CHAPEL,6/9/2016 11:47,41.6024242,-73.93713829,http://gistest2.dcny.gov/vr/bowdoin/images/BOWDOIN13.JPG,http://gistest2.dcny.gov/vr/bowdoin/icons/BOWDOIN13.png
14,BOWDOIN14.JPG,BOWDOIN PARK,CHAPEL,6/9/2016 11:49,41.60241951,-73.93709437,http://gistest2.dcny.gov/vr/bowdoin/images/BOWDOIN14.JPG,http://gistest2.dcny.gov/vr/bowdoin/icons/BOWDOIN14.png
15,BOWDOIN15.JPG,BOWDOIN PARK,CHAPEL,6/9/2016 11:51,41.60223647,-73.93702225,http://gistest2.dcny.gov/vr/bowdoin/images/BOWDOIN15.JPG,http://gistest2.dcny.gov/vr/bowdoin/icons/BOWDOIN15.png
16,BOWDOIN16.JPG,BOWDOIN PARK,COMMUNITY CENTER AUDITORIUM,6/9/2016 12:05,41.60152469,-73.94073884,http://gistest2.dcny.gov/vr/bowdoin/images/BOWDOIN16.JPG,http://gistest2.dcny.gov/vr/bowdoin/icons/BOWDOIN16.png
17,BOWDOIN17.JPG,BOWDOIN PARK,COMMUNITY CENTER AUDITORIUM,6/9/2016 12:06,41.60146676,-73.94083533,http://gistest2.dcny.gov/vr/bowdoin/images/BOWDOIN17.JPG,http://gistest2.dcny.gov/vr/bowdoin/icons/BOWDOIN17.png
18,BOWDOIN18.JPG,BOWDOIN PARK,COMMUNITY CENTER AUDITORIUM,6/9/2016 12:07,41.60163991,-73.9406543,http://gistest2.dcny.gov/vr/bowdoin/images/BOWDOIN18.JPG,http://gistest2.dcny.gov/vr/bowdoin/icons/BOWDOIN18.png
19,BOWDOIN19.JPG,BOWDOIN PARK,COMMUNITY CENTER AUDITORIUM,6/9/2016 12:08,41.6015907,-73.94062749,http://gistest2.dcny.gov/vr/bowdoin/images/BOWDOIN19.JPG,http://gistest2.dcny.gov/vr/bowdoin/icons/BOWDOIN19.png
20,BOWDOIN20.JPG,BOWDOIN PARK,COMMUNITY CENTER,6/9/2016 12:11,41.60140312,-73.94098671,http://gistest2.dcny.gov/vr/bowdoin/images/BOWDOIN20.JPG,http://gistest2.dcny.gov/vr/bowdoin/icons/BOWDOIN20.png
21,BOWDOIN21.JPG,BOWDOIN PARK,COMMUNITY CENTER,6/9/2016 12:15,41.60174813,-73.94108455,http://gistest2.dcny.gov/vr/bowdoin/images/BOWDOIN21.JPG,http://gistest2.dcny.gov/vr/bowdoin/icons/BOWDOIN21.png
22,BOWDOIN22.JPG,BOWDOIN PARK,PAVILION 5,6/9/2016 12:20,41.60238323,-73.94130409,http://gistest2.dcny.gov/vr/bowdoin/images/BOWDOIN22.JPG,http://gistest2.dcny.gov/vr/bowdoin/icons/BOWDOIN22.png
23,BOWDOIN23.JPG,BOWDOIN PARK,PAVILION 5,6/9/2016 12:21,41.60220324,-73.9415664,http://gistest2.dcny.gov/vr/bowdoin/images/BOWDOIN23.JPG,http://gistest2.dcny.gov/vr/bowdoin/icons/BOWDOIN23.png
24,BOWDOIN24.JPG,BOWDOIN PARK,PAVILION 5,6/9/2016 12:23,41.60221251,-73.94181672,http://gistest2.dcny.gov/vr/bowdoin/images/BOWDOIN24.JPG,http://gistest2.dcny.gov/vr/bowdoin/icons/BOWDOIN24.png
25,BOWDOIN25.JPG,BOWDOIN PARK,PAVILION 5,6/9/2016 12:23,41.60229813,-73.94174462,http://gistest2.dcny.gov/vr/bowdoin/images/BOWDOIN25.JPG,http://gistest2.dcny.gov/vr/bowdoin/icons/BOWDOIN25.png
26,BOWDOIN26.JPG,BOWDOIN PARK,PAVILION 5,6/9/2016 12:25,41.60240516,-73.94179717,http://gistest2.dcny.gov/vr/bowdoin/images/BOWDOIN26.JPG,http://gistest2.dcny.gov/vr/bowdoin/icons/BOWDOIN26.png
27,BOWDOIN27.JPG,BOWDOIN PARK,PICNIC AREA,6/9/2016 12:31,41.60311875,-73.9419825,http://gistest2.dcny.gov/vr/bowdoin/images/BOWDOIN27.JPG,http://gistest2.dcny.gov/vr/bowdoin/icons/BOWDOIN27.png
28,BOWDOIN28.JPG,BOWDOIN PARK,PICNIC AREA,6/9/2016 12:31,41.60311875,-73.9419825,http://gistest2.dcny.gov/vr/bowdoin/images/BOWDOIN28.JPG,http://gistest2.dcny.gov/vr/bowdoin/icons/BOWDOIN28.png
29,BOWDOIN29.JPG,BOWDOIN PARK,PICNIC AREA,6/9/2016 12:32,41.60312834,-73.94238635,http://gistest2.dcny.gov/vr/bowdoin/images/BOWDOIN29.JPG,http://gistest2.dcny.gov/vr/bowdoin/icons/BOWDOIN29.png
30,BOWDOIN30.JPG,BOWDOIN PARK,PICNIC AREA,6/9/2016 12:33,41.60314412,-73.94291758,http://gistest2.dcny.gov/vr/bowdoin/images/BOWDOIN30.JPG,http://gistest2.dcny.gov/vr/bowdoin/icons/BOWDOIN30.png
31,BOWDOIN31.JPG,BOWDOIN PARK,PAVILION 3,6/9/2016 12:36,41.6025553,-73.94265638,http://gistest2.dcny.gov/vr/bowdoin/images/BOWDOIN31.JPG,http://gistest2.dcny.gov/vr/bowdoin/icons/BOWDOIN31.png
32,BOWDOIN32.JPG,BOWDOIN PARK,PAVILION 3,6/9/2016 12:37,41.60235446,-73.94294201,http://gistest2.dcny.gov/vr/bowdoin/images/BOWDOIN32.JPG,http://gistest2.dcny.gov/vr/bowdoin/icons/BOWDOIN32.png
33,BOWDOIN33.JPG,BOWDOIN PARK,PAVILION 3,6/9/2016 12:39,41.60221769,-73.94290322,http://gistest2.dcny.gov/vr/bowdoin/images/BOWDOIN33.JPG,http://gistest2.dcny.gov/vr/bowdoin/icons/BOWDOIN33.png
34,BOWDOIN34.JPG,BOWDOIN PARK,PAVILION 6,6/9/2016 12:44,41.60185742,-73.94280408,http://gistest2.dcny.gov/vr/bowdoin/images/BOWDOIN34.JPG,http://gistest2.dcny.gov/vr/bowdoin/icons/BOWDOIN34.png
35,BOWDOIN35.JPG,BOWDOIN PARK,PAVILION 6,6/9/2016 12:46,41.60156765,-73.94275025,http://gistest2.dcny.gov/vr/bowdoin/images/BOWDOIN35.JPG,http://gistest2.dcny.gov/vr/bowdoin/icons/BOWDOIN35.png
36,BOWDOIN36.JPG,BOWDOIN PARK,PAVILION 2,6/9/2016 12:54,41.60057331,-73.94271416,http://gistest2.dcny.gov/vr/bowdoin/images/BOWDOIN36.JPG,http://gistest2.dcny.gov/vr/bowdoin/icons/BOWDOIN36.png
37,BOWDOIN37.JPG,BOWDOIN PARK,PAVILION 2,6/9/2016 12:55,41.60044069,-73.94252914,http://gistest2.dcny.gov/vr/bowdoin/images/BOWDOIN37.JPG,http://gistest2.dcny.gov/vr/bowdoin/icons/BOWDOIN37.png
38,BOWDOIN38.JPG,BOWDOIN PARK,PAVILION 2,6/9/2016 12:57,41.60047634,-73.94239749,http://gistest2.dcny.gov/vr/bowdoin/images/BOWDOIN38.JPG,http://gistest2.dcny.gov/vr/bowdoin/icons/BOWDOIN38.png
39,BOWDOIN39.JPG,BOWDOIN PARK,PAVILION 2,6/9/2016 12:59,41.600236,-73.94243697,http://gistest2.dcny.gov/vr/bowdoin/images/BOWDOIN39.JPG,http://gistest2.dcny.gov/vr/bowdoin/icons/BOWDOIN39.png
40,BOWDOIN40.JPG,BOWDOIN PARK,PAVILION 1,6/9/2016 13:02,41.59943976,-73.94144071,http://gistest2.dcny.gov/vr/bowdoin/images/BOWDOIN40.JPG,http://gistest2.dcny.gov/vr/bowdoin/icons/BOWDOIN40.png
41,BOWDOIN41.JPG,BOWDOIN PARK,PAVILION 1,6/9/2016 13:04,41.59937996,-73.94121434,http://gistest2.dcny.gov/vr/bowdoin/images/BOWDOIN41.JPG,http://gistest2.dcny.gov/vr/bowdoin/icons/BOWDOIN41.png
42,BOWDOIN42.JPG,BOWDOIN PARK,PAVILION 1,6/9/2016 13:08,41.59929492,-73.94114977,http://gistest2.dcny.gov/vr/bowdoin/images/BOWDOIN42.JPG,http://gistest2.dcny.gov/vr/bowdoin/icons/BOWDOIN42.png
43,BOWDOIN43.JPG,BOWDOIN PARK,ATHLETIC FIELD,6/9/2016 13:11,41.59857422,-73.94196581,http://gistest2.dcny.gov/vr/bowdoin/images/BOWDOIN43.JPG,http://gistest2.dcny.gov/vr/bowdoin/icons/BOWDOIN43.png
44,BOWDOIN44.JPG,BOWDOIN PARK,ATHLETIC FIELD,6/9/2016 13:15,41.59761585,-73.9425267,http://gistest2.dcny.gov/vr/bowdoin/images/BOWDOIN44.JPG,http://gistest2.dcny.gov/vr/bowdoin/icons/BOWDOIN44.png
45,BOWDOIN45.JPG,BOWDOIN PARK,ATHLETIC FIELD,6/9/2016 13:20,41.59762953,-73.94339072,http://gistest2.dcny.gov/vr/bowdoin/images/BOWDOIN45.JPG,http://gistest2.dcny.gov/vr/bowdoin/icons/BOWDOIN45.png
46,BOWDOIN46.JPG,BOWDOIN PARK,ATHLETIC FIELD,6/9/2016 13:25,41.59991107,-73.94267523,http://gistest2.dcny.gov/vr/bowdoin/images/BOWDOIN46.JPG,http://gistest2.dcny.gov/vr/bowdoin/icons/BOWDOIN46.png
