<PAMDataset>
  <PAMRasterBand band="1">
    <Description>assgn_3_2037</Description>
    <Histograms>
      <HistItem>
        <HistMin>-45.24361419677734</HistMin>
        <HistMax>3.486783504486084</HistMax>
        <BucketCount>256</BucketCount>
        <IncludeOutOfRange>1</IncludeOutOfRange>
        <Approximate>0</Approximate>
        <HistCounts>1|0|0|0|1|1|0|0|0|1|0|0|1|1|0|1|0|1|1|0|0|0|0|1|0|1|0|1|1|1|3|2|1|4|3|4|3|4|3|4|5|8|3|3|1|8|5|4|4|4|10|8|10|11|6|13|6|4|7|8|8|11|8|18|12|11|8|11|17|11|18|19|23|17|19|23|23|23|15|16|15|24|19|15|15|16|18|33|20|12|24|16|19|23|21|28|22|23|21|30|36|26|29|36|24|25|34|27|21|22|31|27|19|21|22|21|30|13|23|19|29|18|34|24|23|31|42|21|34|33|37|26|35|29|36|33|29|29|37|31|28|31|34|37|35|35|31|33|39|37|54|83|97|125|118|146|185|187|213|267|317|353|476|519|581|667|762|802|803|918|996|1017|1012|1075|1070|1118|1074|1049|1091|1057|1078|1133|1204|1195|1329|1379|1596|1821|2156|2489|2925|3360|3629|3889|4314|4415|4579|4617|4605|4752|4683|4679|4299|4047|3752|3549|3525|3261|3109|3012|2957|3122|3177|3277|3669|4150|4327|4415|4205|3961|3671|3497|3523|3618|4160|4514|4943|5514|6186|6607|7197|7264|7219|7239|6845|6138|5169|3982|2880|1961|1210|770|477|324|68|37|44|39|44|47|19|10|9|4|0|1</HistCounts>
      </HistItem>
    </Histograms>
    <Metadata>
      <MDI key="RepresentationType">ATHEMATIC</MDI>
      <MDI key="STATISTICS_SKIPFACTORX">1</MDI>
      <MDI key="STATISTICS_SKIPFACTORY">1</MDI>
    </Metadata>
  </PAMRasterBand>
</PAMDataset>
