Name	Type	Latitude (WGS84)	Longitude (WGS84)	Z	Date	Time	Recorded by	Porosity
M1	Measurement	52.87897135	-1.073541362	270	02/01/2012	16:05:00	Brian	0.12
M2	Measurement	52.87629339	-1.073203182	260	03/01/2012	09:17:00	Trevor	0.05
M3	Measurement	52.87609112	-1.071706793	240	04/01/2012	11:07:00	Bob	0.15
M4	Measurement	52.88614533	-1.074494192	245	05/01/2012	14:48:00	Gary	0.23